Building file: ../src/main.cpp
Invoking: GCC C++ Compiler
mpicxx -I../src -I/opt/mvapich2/intel/19.0/2.3.3/include -I/usr/local/boost/intel/19.0/mvapich2/2.3/1.72.0/include -O2 -g -Wall -c -fmessage-length=0 -std=c++17    -L/opt/mvapich2/intel/19.0/2.3.3/lib -lmpich -libverbs -lpthread -L/usr/local/boost/intel/19.0/mvapich2/2.3/1.72.0/lib -fopenmp -lmpi -lboost_mpi -lboost_serialization -MMD -MP -MF"src/main.d" -MT"src/main.d" -o "src/main.o" "../src/main.cpp"
Finished building: ../src/main.cpp
 
Building target: MPI
Invoking: GCC C++ Linker
mpicxx -o "MPI"   ./src/CStopWatch.o  ./src/main.o -L/opt/mvapich2/intel/19.0/2.3.3/lib -lmpich -libverbs -lpthread -L/usr/local/boost/intel/19.0/mvapich2/2.3/1.72.0/lib -fopenmp -lmpi -lboost_mpi -lboost_serialization 
Finished building target: MPI
 
